<?xml version="1.0" encoding="UTF-8" ?>
<testsuite tests="37" failures="0" name="com.challenge.test.RunCukesTest" time="199.142" errors="0" skipped="0">
  <properties>
    <property name="java.runtime.name" value="OpenJDK Runtime Environment"/>
    <property name="sun.boot.library.path" value="/usr/lib/jvm/java-8-openjdk-amd64/jre/lib/amd64"/>
    <property name="java.vm.version" value="25.292-b10"/>
    <property name="java.vm.vendor" value="Private Build"/>
    <property name="java.vendor.url" value="http://java.oracle.com/"/>
    <property name="path.separator" value=":"/>
    <property name="guice.disable.misplaced.annotation.check" value="true"/>
    <property name="java.vm.name" value="OpenJDK 64-Bit Server VM"/>
    <property name="file.encoding.pkg" value="sun.io"/>
    <property name="user.country" value="US"/>
    <property name="sun.java.launcher" value="SUN_STANDARD"/>
    <property name="sun.os.patch.level" value="unknown"/>
    <property name="java.vm.specification.name" value="Java Virtual Machine Specification"/>
    <property name="user.dir" value="/home/familia/projects/selenium-web-desafio-unica"/>
    <property name="java.runtime.version" value="1.8.0_292-8u292-b10-0ubuntu1~14.04-b10"/>
    <property name="java.awt.graphicsenv" value="sun.awt.X11GraphicsEnvironment"/>
    <property name="java.endorsed.dirs" value="/usr/lib/jvm/java-8-openjdk-amd64/jre/lib/endorsed"/>
    <property name="os.arch" value="amd64"/>
    <property name="java.io.tmpdir" value="/tmp"/>
    <property name="line.separator" value="
"/>
    <property name="java.vm.specification.vendor" value="Oracle Corporation"/>
    <property name="os.name" value="Linux"/>
    <property name="classworlds.conf" value="/usr/share/maven/bin/m2.conf"/>
    <property name="sun.jnu.encoding" value="UTF-8"/>
    <property name="java.library.path" value="/usr/java/packages/lib/amd64:/usr/lib/x86_64-linux-gnu/jni:/lib/x86_64-linux-gnu:/usr/lib/x86_64-linux-gnu:/usr/lib/jni:/lib:/usr/lib"/>
    <property name="java.specification.name" value="Java Platform API Specification"/>
    <property name="java.class.version" value="52.0"/>
    <property name="sun.management.compiler" value="HotSpot 64-Bit Tiered Compilers"/>
    <property name="os.version" value="4.4.0-148-generic"/>
    <property name="user.home" value="/home/familia"/>
    <property name="user.timezone" value="America/Sao_Paulo"/>
    <property name="java.awt.printerjob" value="sun.print.PSPrinterJob"/>
    <property name="file.encoding" value="UTF-8"/>
    <property name="java.specification.version" value="1.8"/>
    <property name="user.name" value="familia"/>
    <property name="java.class.path" value="/usr/share/maven/boot/plexus-classworlds-2.x.jar"/>
    <property name="java.vm.specification.version" value="1.8"/>
    <property name="sun.arch.data.model" value="64"/>
    <property name="java.home" value="/usr/lib/jvm/java-8-openjdk-amd64/jre"/>
    <property name="sun.java.command" value="org.codehaus.plexus.classworlds.launcher.Launcher clean install"/>
    <property name="java.specification.vendor" value="Oracle Corporation"/>
    <property name="user.language" value="en"/>
    <property name="awt.toolkit" value="sun.awt.X11.XToolkit"/>
    <property name="java.vm.info" value="mixed mode"/>
    <property name="java.version" value="1.8.0_292"/>
    <property name="java.ext.dirs" value="/usr/lib/jvm/java-8-openjdk-amd64/jre/lib/ext:/usr/java/packages/lib/ext"/>
    <property name="securerandom.source" value="file:/dev/./urandom"/>
    <property name="sun.boot.class.path" value="/usr/lib/jvm/java-8-openjdk-amd64/jre/lib/resources.jar:/usr/lib/jvm/java-8-openjdk-amd64/jre/lib/rt.jar:/usr/lib/jvm/java-8-openjdk-amd64/jre/lib/sunrsasign.jar:/usr/lib/jvm/java-8-openjdk-amd64/jre/lib/jsse.jar:/usr/lib/jvm/java-8-openjdk-amd64/jre/lib/jce.jar:/usr/lib/jvm/java-8-openjdk-amd64/jre/lib/charsets.jar:/usr/lib/jvm/java-8-openjdk-amd64/jre/lib/jfr.jar:/usr/lib/jvm/java-8-openjdk-amd64/jre/classes"/>
    <property name="java.vendor" value="Private Build"/>
    <property name="maven.home" value="/usr/share/maven"/>
    <property name="file.separator" value="/"/>
    <property name="java.vendor.url.bug" value="http://bugreport.sun.com/bugreport/"/>
    <property name="sun.cpu.endian" value="little"/>
    <property name="sun.io.unicode.encoding" value="UnicodeLittle"/>
    <property name="sun.desktop" value="gnome"/>
    <property name="sun.cpu.isalist" value=""/>
  </properties>
  <testcase classname="| https:\/\/www.amazon.com.br\/ | notebook |" name="Given user loads the configuration data" time="0.002"/>
  <testcase classname="| https:\/\/www.amazon.com.br\/ | notebook |" name="Given user navigates to \&apos;https:\/\/www.amazon.com.br\/\&apos;" time="0"/>
  <testcase classname="| https:\/\/www.amazon.com.br\/ | notebook |" name="When user search \&apos;txtSearch\&apos; \&apos;notebook\&apos;" time="0"/>
  <testcase classname="| https:\/\/www.amazon.com.br\/ | notebook |" name="And user clicks \&apos;btnSearch\&apos;" time="0"/>
  <testcase classname="| https:\/\/www.amazon.com.br\/ | notebook |" name="And user scroll \&apos;Down\&apos;" time="0"/>
  <testcase classname="| https:\/\/www.amazon.com.br\/ | notebook |" name="And get details of product \&apos;priceOfItemCatalog\&apos;" time="0.001"/>
  <testcase classname="| https:\/\/www.amazon.com.br\/ | notebook |" name="And user clicks \&apos;selectProduct\&apos;" time="0"/>
  <testcase classname="| https:\/\/www.amazon.com.br\/ | notebook |" name="Then it should return \&apos;titleOfItemCart\&apos; for \&apos;notebook\&apos;" time="0"/>
  <testcase classname="| https:\/\/www.amazon.com.br\/ | notebook |" name="Then it should return \&apos;priceOfItemCart\&apos; cart" time="0"/>
  <testcase classname="| https:\/\/www.amazon.com.br\/ | notebook |" name="And quit driver" time="0"/>
  <testcase classname="| https:\/\/www.amazon.com.br\/ | notebook |" name="| https:\/\/www.amazon.com.br\/ | notebook |" time="0"/>
  <testcase classname="| https:\/\/www.amazon.com.br\/ | notebook |" name="Given user loads the configuration data" time="0.004"/>
  <testcase classname="| https:\/\/www.amazon.com.br\/ | notebook |" name="Given user navigates to \&apos;https:\/\/www.amazon.com.br\/\&apos;" time="0"/>
  <testcase classname="| https:\/\/www.amazon.com.br\/ | notebook |" name="When user search \&apos;txtSearch\&apos; \&apos;notebook\&apos;" time="0"/>
  <testcase classname="| https:\/\/www.amazon.com.br\/ | notebook |" name="And user clicks \&apos;btnSearch\&apos;" time="0"/>
  <testcase classname="| https:\/\/www.amazon.com.br\/ | notebook |" name="And user scroll \&apos;Down\&apos;" time="0"/>
  <testcase classname="| https:\/\/www.amazon.com.br\/ | notebook |" name="And user clicks \&apos;selectProduct\&apos;" time="0"/>
  <testcase classname="| https:\/\/www.amazon.com.br\/ | notebook |" name="And get details of product \&apos;priceOfItemCart\&apos;" time="0"/>
  <testcase classname="| https:\/\/www.amazon.com.br\/ | notebook |" name="And user clicks \&apos;selectQuantityOfItemCart\&apos;" time="0"/>
  <testcase classname="| https:\/\/www.amazon.com.br\/ | notebook |" name="And user clicks \&apos;btnAddCart\&apos;" time="0"/>
  <testcase classname="| https:\/\/www.amazon.com.br\/ | notebook |" name="Then it should return subTotal \&apos;subTotalOfItemCart\&apos; cart" time="0"/>
  <testcase classname="| https:\/\/www.amazon.com.br\/ | notebook |" name="And quit driver" time="0"/>
  <testcase classname="| https:\/\/www.amazon.com.br\/ | notebook |" name="| https:\/\/www.amazon.com.br\/ | notebook |" time="0"/>
  <testcase classname="| https:\/\/www.amazon.com.br\/ | notebook |" name="Given user loads the configuration data" time="0"/>
  <testcase classname="| https:\/\/www.amazon.com.br\/ | notebook |" name="Given user navigates to \&apos;https:\/\/www.amazon.com.br\/\&apos;" time="0"/>
  <testcase classname="| https:\/\/www.amazon.com.br\/ | notebook |" name="When user search \&apos;txtSearch\&apos; \&apos;notebook\&apos;" time="0"/>
  <testcase classname="| https:\/\/www.amazon.com.br\/ | notebook |" name="And user clicks \&apos;btnSearch\&apos;" time="0"/>
  <testcase classname="| https:\/\/www.amazon.com.br\/ | notebook |" name="Then it should return \&apos;items\&apos; for \&apos;notebook\&apos;" time="0.007"/>
  <testcase classname="| https:\/\/www.amazon.com.br\/ | notebook |" name="And quit driver" time="0"/>
  <testcase classname="| https:\/\/www.amazon.com.br\/ | notebook |" name="| https:\/\/www.amazon.com.br\/ | notebook |" time="0"/>
  <testcase classname="| https:\/\/www.amazon.com.br\/ | .@#@#@#%@53235jasdjlkasjd |" name="Given user loads the configuration data" time="0"/>
  <testcase classname="| https:\/\/www.amazon.com.br\/ | .@#@#@#%@53235jasdjlkasjd |" name="Given user navigates to \&apos;https:\/\/www.amazon.com.br\/\&apos;" time="0.004"/>
  <testcase classname="| https:\/\/www.amazon.com.br\/ | .@#@#@#%@53235jasdjlkasjd |" name="When user search \&apos;txtSearch\&apos; \&apos;.@#@#@#%@53235jasdjlkasjd\&apos;" time="0"/>
  <testcase classname="| https:\/\/www.amazon.com.br\/ | .@#@#@#%@53235jasdjlkasjd |" name="And user clicks \&apos;btnSearch\&apos;" time="0.001"/>
  <testcase classname="| https:\/\/www.amazon.com.br\/ | .@#@#@#%@53235jasdjlkasjd |" name="Then it should return \&apos;itemNoFound\&apos; for \&apos;.@#@#@#%@53235jasdjlkasjd\&apos;" time="0"/>
  <testcase classname="| https:\/\/www.amazon.com.br\/ | .@#@#@#%@53235jasdjlkasjd |" name="And quit driver" time="0.001"/>
  <testcase classname="| https:\/\/www.amazon.com.br\/ | .@#@#@#%@53235jasdjlkasjd |" name="| https:\/\/www.amazon.com.br\/ | .@#@#@#%@53235jasdjlkasjd |" time="0.001"/>
</testsuite>